…
    )
  ) %>%
  gather(key = "team_unit", value = "team", offense:defense) %>%
  mutate(
    play_success = case_when(
      team_unit == "defense" ~ !play_success,
      TRUE ~ play_success
    )
  ) %>%
  group_by(team, team_unit) %>%
  summarize(success_rate = mean(play_success, na.rm = TRUE)) %>%
  spread(key = team_unit, value = success_rate) %>%
  ungroup()
success
#> # A tibble: 32 x 3
#>    team  defense offense
#>    <chr>   <dbl>   <dbl>
#>  1 ARI     0.579   0.458
#>  2 ATL     0.512   0.500
#>  3 BAL     0.580   0.410
#>  4 BUF     0.553   0.464
#>  5 CAR     0.542   0.420
#>  6 CHI     0.550   0.461
#>  7 CIN     0.558   0.464
#>  8 CLE     0.546   0.409
#>  9 DAL     0.521   0.511
#> 10 DEN     0.594   0.423
#> # … with 22 more rows
…
ggplot(data = success, mapping = aes(x = defense, y = offense)) +
  geom_point() +
  geom_smooth(method = "lm")

<img src="{{< relref "post/2017-07-20-tidy-sports-analytics-part-3-ggplot2/index.html" >}}index_files/figure-html/smooth-1.png" alt="Scatterplot with linear best fit line" width="80%" />

Figure 2: Scatterplot with linear best fit line

With ggplot, it’s easy to add extra elements to customize the specific pieces needed for the visualization. Each geom also comes with its own options. For example, in geom_smooth, we’ve specified the "lm" smoothing method. By default, geom_smooth will create a loess line; however, here we used "lm" to create a line based on a linear regression model. Therefore, the line is linear, rather than a line that fluctuates. We can also specify groupings in the plots. Just as groupings allowed us to make calculations by group in the previous post, groupings in ggplot2 allow us to map certain aesthetics at the group level. For example, we can map different colors to each group. For effective grouping, the data will need to be in long format, which can be accomplished using the gather function. A more detailed example and explanation of using the gather function can be found in part two.

success <- gather(success, key = "team_unit", value = "success_rate",
  defense:offense)
success
#> # A tibble: 64 x 3
#>    team  team_unit success_rate
#>    <chr> <chr>            <dbl>
#>  1 ARI   defense          0.579
#>  2 ATL   defense          0.512
#>  3 BAL   defense          0.580
#>  4 BUF   defense          0.553
#>  5 CAR   defense          0.542
#>  6 CHI   defense          0.550
#>  7 CIN   defense          0.558
#>  8 CLE   defense          0.546
#>  9 DAL   defense          0.521
#> 10 DEN   defense          0.594
#> # … with 54 more rows
…
