…
I decided that I must have one. So I set about trying to recreate the ggclock.

Create the data

First things first. If we are going to create a plot, we need some data. Specifically, we need a point a for every minute, and then larger points for each hour. We create a point for every minute, 0 through 60, and we can mark the hours by selecting the 5 minute marks. I’ve set y to be 1, as this will end up being the radius of our circle.

library(tidyverse)

minutes <- data_frame(x = 0:60, y = 1)
minutes
#> # A tibble: 61 x 2
#>        x     y
#>    <int> <dbl>
#>  1     0     1
#>  2     1     1
#>  3     2     1
#>  4     3     1
#>  5     4     1
#>  6     5     1
#>  7     6     1
#>  8     7     1
#>  9     8     1
#> 10     9     1
#> # … with 51 more rows
…
