…
full_pbp <- bind_rows(list(half_1, half_2))
full_pbp

#> # A tibble: 336 x 8
#>    period minute second min_played min_remain away_score home_score play        
#>    <chr>   <dbl>  <dbl>      <dbl>      <dbl>      <dbl>      <dbl> <chr>       
#>  1 H1         20      0      0           40            0          0 Jump Ball w…
#>  2 H1         19     50      0.167       39.8          0          0 Devonte' Gr…
#>  3 H1         19     50      0.167       39.8          0          0 Landen Luca…
#>  4 H1         19     43      0.283       39.7          0          2 Josh Jackso…
#>  5 H1         19     27      0.55        39.4          0          2 Kamau Stoke…
#>  6 H1         19     27      0.55        39.4          0          2 Frank Mason…
#>  7 H1         19     12      0.8         39.2          0          2 Devonte' Gr…
#>  8 H1         19     12      0.8         39.2          0          2 Dean Wade D…
#>  9 H1         18     48      1.20        38.8          2          2 Wesley Iwun…
#> 10 H1         18     33      1.45        38.6          2          2 Devonte' Gr…
#> # … with 326 more rows
…
Plotting the Win Probabilities

The first thing we have to do is calculate the mean and standard deviation of the distribution at every second of the game, and the corresponding win probability.

full_game <- full_game %>%
  mutate(
    away_margin = away - home,
    mean = (-15 * (min_remain / 40)) + (away_margin * (min_played / 40)),
    sd = 11.36 / sqrt(40 / min_remain),
    home_winprob = pnorm(0, mean = mean, sd = sd, lower.tail = TRUE),
    away_winprob = 1 - home_winprob
  )
full_game
#> # A tibble: 2,401 x 11
#>    minute second min_remain min_played  home  away away_margin  mean    sd
#>     <int>  <int>      <dbl>      <dbl> <dbl> <dbl>       <dbl> <dbl> <dbl>
#>  1     40      0       40       0          0     0           0 -15    11.4
#>  2     39     59       40.0     0.0167     0     0           0 -15.0  11.4
#>  3     39     58       40.0     0.0333     0     0           0 -15.0  11.4
#>  4     39     57       40.0     0.0500     0     0           0 -15.0  11.4
#>  5     39     56       39.9     0.0667     0     0           0 -15.0  11.4
#>  6     39     55       39.9     0.0833     0     0           0 -15.0  11.3
#>  7     39     54       39.9     0.1        0     0           0 -15.0  11.3
#>  8     39     53       39.9     0.117      0     0           0 -15.0  11.3
#>  9     39     52       39.9     0.133      0     0           0 -15.0  11.3
#> 10     39     51       39.8     0.150      0     0           0 -14.9  11.3
#> # … with 2,391 more rows, and 2 more variables: home_winprob <dbl>,
#> #   away_winprob <dbl>
…
