…
Finally, we can use the map function (also from the purrr package) to query all of the defined tags, and pull out the results to a data frame using map_dfr. We then do a little bit of clean up to correct some character encoding issues, remove duplicate questions that were collected under multiple tags (e.g., a question that was tagged tidyverse and dplyr), and arrange by the time the question was posted.

tidy_so <- map(tidyverse, query_tag) %>%
  map_dfr(~(.$result %>% as.tibble())) %>%
  select(title, creation_date, link) %>%
  mutate(
    title = str_replace_all(title, "&#39;", "'"),
    title = str_replace_all(title, "&quot;", '"')
  ) %>%
  distinct() %>%
  arrange(creation_date)

tidy_so
#> # A tibble: 1,832 x 3
#>    title                        creation_date       link                        
#>    <chr>                        <dttm>              <chr>                       
#>  1 "How do you read in multipl… 2010-08-03 10:08:55 https://stackoverflow.com/q…
#>  2 "Length of lubridate interv… 2012-01-06 17:02:03 https://stackoverflow.com/q…
#>  3 "R : readBin and writeBin (… 2012-07-23 00:22:16 https://stackoverflow.com/q…
#>  4 "wrapping legend text to fi… 2012-08-23 09:27:00 https://stackoverflow.com/q…
#>  5 "Create a Vector of All Day… 2013-01-21 19:58:48 https://stackoverflow.com/q…
#>  6 "Right to left languages su… 2014-03-15 07:23:35 https://stackoverflow.com/q…
#>  7 "How to extract Month from … 2014-03-24 02:58:53 https://stackoverflow.com/q…
#>  8 "passing function argument … 2014-04-07 12:43:24 https://stackoverflow.com/q…
#>  9 "Differences between %.% (d… 2014-05-12 19:53:37 https://stackoverflow.com/q…
#> 10 "Use variable names in func… 2014-07-04 02:44:52 https://stackoverflow.com/q…
#> # … with 1,822 more rows
…
For now, only the tidyverse and teaching categories are queried for the @tidyversetweets. This is because other categories generally have topics that are not directly related to the tidyverse, which is the focus of this bot. Once the query_community function is defined, the process for scraping the information is very similar to that used for StackOverflow. There is, however, one additional layer of complexity for the RSS data. In the raw data, a new entry is created for each comment that is made within the category. For the Twitterbot, we only want to tweet out new topics, meaning that we only want the first entry for each topic. Therefore, we can group by the topic, and select only the entry with the earliest creation date within each topic.

rstudio <- c("tidyverse", "teaching")

tidy_rc <- map(rstudio, query_community) %>%
  map_dfr(~(.$items %>% as.tibble())) %>%
  select(title, creation_date = date, link) %>%
  group_by(title) %>%
  top_n(n = -1, wt = creation_date) %>%
  arrange(creation_date)

tidy_rc
#> # A tibble: 50 x 3
#> # Groups:   title [50]
#>    title                        creation_date       link                        
#>    <chr>                        <dttm>              <chr>                       
#>  1 Crowd-sourced repository of… 2020-03-20 15:37:05 https://community.rstudio.c…
#>  2 Teaching R online with RStu… 2020-03-24 20:28:00 https://community.rstudio.c…
#>  3 Teaching style - slides, li… 2020-03-28 09:04:37 https://community.rstudio.c…
#>  4 Sharing on Short Notice: Ho… 2020-03-31 20:52:09 https://community.rstudio.c…
#>  5 Creating sortable tag so th… 2020-04-15 18:03:52 https://community.rstudio.c…
#>  6 GPU@RStudio for teaching Te… 2020-04-21 10:09:25 https://community.rstudio.c…
#>  7 Creating student version of… 2020-04-28 00:57:34 https://community.rstudio.c…
#>  8 keep busy with data science  2020-05-16 23:04:12 https://community.rstudio.c…
#>  9 What are the plans for the … 2020-06-07 12:36:16 https://community.rstudio.c…
#> 10 Tips for an American teachi… 2020-06-17 16:09:52 https://community.rstudio.c…
#> # … with 40 more rows
…
