…
{{% tweet "859084459127316480" %}}
Despite looking very different, all of these datasets have the same summary statistics to two decimal places. You can download the datasets, get details about the project, and read the whole paper by Justin Matejka and George Fitzmaurice here. In this post, I’ll show how we can recreate the GIF from the above tweet using tweenr and gganimate.

Creating the plots

The first step is to read in the data. The data has three variables: the dataset name, x, and y. I’ll define dataset as a factor so that the datasets will appear in the correct order in the animation.

library(tidyverse)
library(forcats)

datasaurus <- read_table2("data/DatasaurusDozen.tsv",
  col_names = TRUE, col_types = "cnn") %>%
  mutate(dataset = as_factor(dataset))
datasaurus
#> # A tibble: 1,846 x 3
#>    dataset     x     y
#>    <fct>   <dbl> <dbl>
#>  1 dino     55.4  97.2
#>  2 dino     51.5  96.0
#>  3 dino     46.2  94.5
#>  4 dino     42.8  91.4
#>  5 dino     40.8  88.3
#>  6 dino     38.7  84.9
#>  7 dino     35.6  79.9
#>  8 dino     33.1  77.6
#>  9 dino     29.0  74.5
#> 10 dino     26.2  71.4
#> # … with 1,836 more rows
…
I’ve also added the dino dataset again at the bottom so that the GIF with start and end with that dataset, making it seamless. I’ll then use tween_states, sending it the list of dataframes, and specifying the length of each state and transitions (I had to play around a bit with the numbers until I was happy with the final animation).

tween_datasaurus <- tween_states(n_datasaurus$data, tweenlength = 1,
  statelength = 0.5, ease = "sine-out", nframe = 200) %>%
  as.tibble()
tween_datasaurus
#> # A tibble: 28,400 x 5
#>        x     y .phase   .id .frame
#>    <dbl> <dbl> <chr>  <int>  <int>
#>  1  55.4  97.2 static     1      1
#>  2  51.5  96.0 static     1      1
#>  3  46.2  94.5 static     1      1
#>  4  42.8  91.4 static     1      1
#>  5  40.8  88.3 static     1      1
#>  6  38.7  84.9 static     1      1
#>  7  35.6  79.9 static     1      1
#>  8  33.1  77.6 static     1      1
#>  9  29.0  74.5 static     1      1
#> 10  26.2  71.4 static     1      1
#> # … with 28,390 more rows
…
