…
Earlier this week Mike Bostock tweeted a interesting looking contour plot with a link to edit the formula and manipulate the graphic using D3.js.

{{% tweet "1036664864897298437" %}}
I decided I would attempt to recreate the image using ggplot2, and animate it using the new gganimate package.

Creating the data

I started by creating a data frame with all the combinations of x and y on a grid between -10 and 10, in intervals of 0.1. Then I defined a third variable, z as a function of x and y, using the same equation as originally used here.

plot_data <- crossing(x = seq(-10, 10, 0.1), y = seq(-10, 10, 0.1)) %>%
  mutate(z = sin(sin(x * (sin(y) - cos(x)))) - cos(cos(y * (cos(x) - sin(y)))))

plot_data
#> # A tibble: 40,401 x 3
#>        x     y       z
#>    <dbl> <dbl>   <dbl>
#>  1   -10 -10   -1.77  
#>  2   -10  -9.9 -0.950 
#>  3   -10  -9.8 -0.275 
#>  4   -10  -9.7 -0.138 
#>  5   -10  -9.6  0.0279
#>  6   -10  -9.5 -1.01  
#>  7   -10  -9.4 -1.80  
#>  8   -10  -9.3 -1.28  
#>  9   -10  -9.2 -0.564 
#> 10   -10  -9.1 -0.227 
#> # … with 40,391 more rows
…
